A1    B1      4
      B2      2
      B3      6
TOTAL A1     12
A2    B1      4
      B2      2
      B3      6
TOTAL A2     12
A3    B1      4
      B2      2
      B3      6
TOTAL A3     12
TOTAL        36
